<?xml version="1.0" encoding="UTF-8" standalone="no"?>
<svg
   xmlns:osb="http://www.openswatchbook.org/uri/2009/osb"
   xmlns:dc="http://purl.org/dc/elements/1.1/"
   xmlns:cc="http://creativecommons.org/ns#"
   xmlns:rdf="http://www.w3.org/1999/02/22-rdf-syntax-ns#"
   xmlns:svg="http://www.w3.org/2000/svg"
   xmlns="http://www.w3.org/2000/svg"
   xmlns:xlink="http://www.w3.org/1999/xlink"
   width="50mm"
   height="50mm"
   viewBox="0 0 50 50"
   version="1.1"
   id="svg5715">
  <defs
     id="defs5709">
    <linearGradient
       gradientTransform="matrix(0,0,0,0,-0.214809,9.590033)"
       osb:paint="solid"
       id="linearGradient4609">
      <stop
         id="stop4607"
         offset="0"
         style="stop-color:#ffffff;stop-opacity:1;" />
    </linearGradient>
    <linearGradient
       gradientUnits="userSpaceOnUse"
       gradientTransform="matrix(-1.9003918e-5,0,0,-4.8668474e-5,-50.855263,90.922291)"
       id="linearGradient934"
       xlink:href="#linearGradient4609" />
    <linearGradient
       gradientTransform="translate(-64.999999,-22)"
       xlink:href="#linearGradient4688"
       id="linearGradient4690"
       x1="65"
       y1="22"
       x2="115"
       y2="72"
       gradientUnits="userSpaceOnUse" />
    <linearGradient
       id="linearGradient4688">
      <stop
         style="stop-color:#7a9eda;stop-opacity:1"
         offset="0"
         id="stop4684" />
      <stop
         style="stop-color:#305eab;stop-opacity:1"
         offset="1"
         id="stop4686" />
    </linearGradient>
  </defs>
  <metadata
     id="metadata5712">
    <rdf:RDF>
      <cc:Work
         rdf:about="">
        <dc:format>image/svg+xml</dc:format>
        <dc:type
           rdf:resource="http://purl.org/dc/dcmitype/StillImage" />
        <dc:title></dc:title>
      </cc:Work>
    </rdf:RDF>
  </metadata>
  <rect
     rx="3.9999998"
     y="7.2265628e-08"
     x="4.020996e-07"
     height="50"
     width="50"
     id="rect817-3"
     style="opacity:1;vector-effect:none;fill:url(#linearGradient4690);fill-opacity:1;fill-rule:nonzero;stroke:none;stroke-width:1.00012505;stroke-linecap:round;stroke-linejoin:miter;stroke-miterlimit:4;stroke-dasharray:none;stroke-dashoffset:0;stroke-opacity:0.99215686" />
  <rect
     y="20"
     x="5.0000005"
     height="10"
     width="10"
     id="rect4613"
     style="opacity:1;vector-effect:none;fill:url(#linearGradient4609);fill-opacity:1;fill-rule:nonzero;stroke:none;stroke-width:0.99999994;stroke-linecap:round;stroke-linejoin:miter;stroke-miterlimit:4;stroke-dasharray:none;stroke-dashoffset:0;stroke-opacity:1" />
  <path
     id="path4621"
     d="M 5,14.999999 10,4.999998 15,14.999999 Z"
     style="fill:url(#linearGradient4609);fill-rule:evenodd;stroke:none;stroke-width:0.26458332px;stroke-linecap:butt;stroke-linejoin:miter;stroke-opacity:1" />
  <circle
     r="5"
     cy="39.999992"
     cx="10"
     id="path4623"
     style="opacity:1;vector-effect:none;fill:url(#linearGradient4609);fill-opacity:1;fill-rule:nonzero;stroke:none;stroke-width:0.99999994;stroke-linecap:round;stroke-linejoin:miter;stroke-miterlimit:4;stroke-dasharray:none;stroke-dashoffset:0;stroke-opacity:1" />
  <path
     id="path4625"
     d="M 20,9.999997 H 45"
     style="fill:none;fill-rule:evenodd;stroke:#ffffff;stroke-width:2.50004768;stroke-linecap:square;stroke-linejoin:miter;stroke-miterlimit:4;stroke-dasharray:none;stroke-dashoffset:0;stroke-opacity:1" />
  <path
     style="fill:none;fill-rule:evenodd;stroke:#ffffff;stroke-width:2.50004768;stroke-linecap:square;stroke-linejoin:miter;stroke-miterlimit:4;stroke-dasharray:none;stroke-opacity:1"
     d="M 20,24.999998 H 45"
     id="path4627" />
  <path
     id="path4629"
     d="M 20,39.999998 H 45"
     style="fill:none;fill-rule:evenodd;stroke:#ffffff;stroke-width:2.50004768;stroke-linecap:square;stroke-linejoin:miter;stroke-miterlimit:4;stroke-dasharray:none;stroke-opacity:1" />
</svg>
